%YAML 1.1
%TAG !u! tag:unity3d.com,2011:
--- !u!1 &3463831563222617671
GameObject:
  m_ObjectHideFlags: 0
  m_CorrespondingSourceObject: {fileID: 0}
  m_PrefabInstance: {fileID: 0}
  m_PrefabAsset: {fileID: 0}
  serializedVersion: 6
  m_Component:
  - component: {fileID: 3463831563222617673}
  - component: {fileID: 3463831563222617670}
  m_Layer: 0
  m_Name: MenuSelector
  m_TagString: Untagged
  m_Icon: {fileID: 0}
  m_NavMeshLayer: 0
  m_StaticEditorFlags: 0
  m_IsActive: 1
--- !u!4 &3463831563222617673
Transform:
  m_ObjectHideFlags: 0
  m_CorrespondingSourceObject: {fileID: 0}
  m_PrefabInstance: {fileID: 0}
  m_PrefabAsset: {fileID: 0}
  m_GameObject: {fileID: 3463831563222617671}
  m_LocalRotation: {x: 0, y: 0, z: 0, w: 1}
  m_LocalPosition: {x: 0, y: 0, z: 0}
  m_LocalScale: {x: 1, y: 1, z: 1}
  m_Children: []
  m_Father: {fileID: 0}
  m_RootOrder: 0
  m_LocalEulerAnglesHint: {x: 0, y: 0, z: 0}
--- !u!114 &3463831563222617670
MonoBehaviour:
  m_ObjectHideFlags: 0
  m_CorrespondingSourceObject: {fileID: 0}
  m_PrefabInstance: {fileID: 0}
  m_PrefabAsset: {fileID: 0}
  m_GameObject: {fileID: 3463831563222617671}
  m_Enabled: 1
  m_EditorHideFlags: 0
  m_Script: {fileID: 11500000, guid: 7ebc85a12af05204a88e812ce773be97, type: 3}
  m_Name: 
  m_EditorClassIdentifier: 
  Level: {fileID: 0}
  MapCamera: {fileID: 0}
  MainCamera: {fileID: 0}
  Mouse: {fileID: 0}
  Pad: {fileID: 0}
  Pin: {fileID: 0}
  OpenMouse: 109
  OpenPin: 112
  OpenPad: Map
